Unemployment, Suicide, and Homicide (Codeless) • UnempDeaths
…
The plan for the project is simply to find the relationship unemployment has with suicide, homicide and unintentional deaths, and explain that relationship with visuals. We are using compositional data, so the plan is to use logratio transformations in combination with linear regression to model it. To judge whether the modle is significant or not, we will be using p-values and r-squared. The goal for the p-values is anything under 1%, and–as we are not pursuing complex models–the goal for the r-squared value is anything over 10% (deaths is complex, so unemployment alone cannot be expected to explain anything even approaching half of it).

Data Understanding

Initial efforts to carry out this study at the state-level were unsatisfactory, so we are going to be working with county-level data.

The three main sources of data we are working with are census data from 2000 and 2010, data on deaths in the USA from the CDC, and data on employment/unemployment from the Bureau of Labor Statistics. Our goal is a dataset with the sums of death by intent for each county in each year, as well as employment and population figures for each county. Moreover, land-area data for each county would be useful for calculating population density. Finally for good measure, in case we want to geographically cluster the counties, GPS coordinates would be most useful.

The data taken straight each census is the hardest to work with, as these are divided between multiple spreadsheets, some over 100MB, and dozens of features. To make this data more easily accessible, we are simply extracting the features we need. However, this data is merely a snapshot, so to fill in the years between we need estimates and projections. Fortunately, the census bureau has already made projects for after 2010 available up until 2018–expect 2019 in June.

Similar estimates are available between 2000 and 2010, but only for states–so we will have to make these esitmates ourselves. The census bureau’s methodology in this case is to assume steady expotential growth between 2000 and 2010, so all we have to do is solve an exponential equation for t = 2000 and 2010, and then plug in t = 2001-2009 to get their populations.

The main issue with the data instead arises from how the CDC data is distributed. There are a larger number of small counties which in a given year have no homicides or suicides–and a few that bafflingly even lack recorded unintentional deaths for the entire 20-year period we have data for.

#> # A tibble: 59,599 x 19
#>    LONG_ID  YEAR COUNTY LABOR_FORCE EMPLOYED  LAND   LAT  LONG    POP SUICIDE
#>    <chr>   <dbl> <chr>        <dbl>    <dbl> <dbl> <dbl> <dbl>  <dbl>   <dbl>
#>  1 01001 ~  2018 Autau~       26196    25261  601.  32.5 -86.5  55533      11
#>  2 01003 ~  2018 Baldw~       95233    91809 1608.  30.6 -87.8 217855      44
#>  3 01005 ~  2018 Barbo~        8414     7987  895.  31.9 -85.3  24872       0
#>  4 01007 ~  2018 Bibb ~        8605     8268  630.  33.0 -87.1  22367       0
#>  5 01009 ~  2018 Bloun~       25069    24201  652.  34.0 -86.6  57771      10
#>  6 01011 ~  2018 Bullo~        4791     4571  630.  32.1 -85.7  10174       0
#>  7 01013 ~  2018 Butle~        8973     8553  786.  31.8 -86.7  19631       0
#>  8 01015 ~  2018 Calho~       46307    44191  613.  33.7 -85.8 114331      25
#>  9 01017 ~  2018 Chamb~       15366    14775  604.  32.9 -85.3  33600       0
#> 10 01019 ~  2018 Chero~       11688    11276  560.  34.2 -85.6  26014       0
#> # ... with 59,589 more rows, and 9 more variables: HOMICIDE <dbl>,
#> #   UNINTENTIONAL <dbl>, UNDETERMINED <dbl>, UNEMPLOYED <dbl>, DENSITY <dbl>,
#> #   ELDERLY <dbl>, WORKING_AGE <dbl>, YOUTH <dbl>, DISCOURAGED <dbl>
…
