Unemployment, Suicide, and Homicide • UnempDeaths
…
  dplyr::mutate('DISCOURAGED' = .data$WORKING_AGE - .data$LABOR_FORCE ) %>%
  dplyr::mutate('WORKING_AGE' = dplyr::if_else(.data$DISCOURAGED < 0,
                                               .data$WORKING_AGE + .data$DISCOURAGED / 2,
                                               .data$WORKING_AGE)) %>%
  dplyr::mutate('ELDERLY' = dplyr::if_else(.data$DISCOURAGED < 0,
                                           .data$ELDERLY - .data$DISCOURAGED / 2,
                                           .data$ELDERLY ) ) %>%
  dplyr::mutate('YOUTH' = dplyr::if_else(.data$DISCOURAGED < 0,
                                         .data$YOUTH - .data$DISCOURAGED / 2,
                                         .data$YOUTH ) ) %>%
  dplyr::mutate('DISCOURAGED' = dplyr::if_else(.data$DISCOURAGED < 0,
                                               0,
                                               .data$DISCOURAGED ) )
df
#> # A tibble: 59,599 x 19
#>    LONG_ID  YEAR COUNTY LABOR_FORCE EMPLOYED  LAND   LAT  LONG    POP SUICIDE
#>    <chr>   <dbl> <chr>        <dbl>    <dbl> <dbl> <dbl> <dbl>  <dbl>   <dbl>
#>  1 01001 ~  2018 Autau~       26196    25261  601.  32.5 -86.5  55533      11
#>  2 01003 ~  2018 Baldw~       95233    91809 1608.  30.6 -87.8 217855      44
#>  3 01005 ~  2018 Barbo~        8414     7987  895.  31.9 -85.3  24872       0
#>  4 01007 ~  2018 Bibb ~        8605     8268  630.  33.0 -87.1  22367       0
#>  5 01009 ~  2018 Bloun~       25069    24201  652.  34.0 -86.6  57771      10
#>  6 01011 ~  2018 Bullo~        4791     4571  630.  32.1 -85.7  10174       0
#>  7 01013 ~  2018 Butle~        8973     8553  786.  31.8 -86.7  19631       0
#>  8 01015 ~  2018 Calho~       46307    44191  613.  33.7 -85.8 114331      25
#>  9 01017 ~  2018 Chamb~       15366    14775  604.  32.9 -85.3  33600       0
#> 10 01019 ~  2018 Chero~       11688    11276  560.  34.2 -85.6  26014       0
#> # ... with 59,589 more rows, and 9 more variables: HOMICIDE <dbl>,
#> #   UNINTENTIONAL <dbl>, UNDETERMINED <dbl>, UNEMPLOYED <dbl>, DENSITY <dbl>,
#> #   ELDERLY <dbl>, WORKING_AGE <dbl>, YOUTH <dbl>, DISCOURAGED <dbl>
…
